<?xml version="1.0" encoding="utf-8"?>
<!-- Generator: Adobe Illustrator 15.0.2, SVG Export Plug-In . SVG Version: 6.00 Build 0)  -->
<!DOCTYPE svg PUBLIC "-//W3C//DTD SVG 1.1//EN" "http://www.w3.org/Graphics/SVG/1.1/DTD/svg11.dtd" [
	<!ENTITY ns_extend "http://ns.adobe.com/Extensibility/1.0/">
	<!ENTITY ns_ai "http://ns.adobe.com/AdobeIllustrator/10.0/">
	<!ENTITY ns_graphs "http://ns.adobe.com/Graphs/1.0/">
	<!ENTITY ns_vars "http://ns.adobe.com/Variables/1.0/">
	<!ENTITY ns_imrep "http://ns.adobe.com/ImageReplacement/1.0/">
	<!ENTITY ns_sfw "http://ns.adobe.com/SaveForWeb/1.0/">
	<!ENTITY ns_custom "http://ns.adobe.com/GenericCustomNamespace/1.0/">
	<!ENTITY ns_adobe_xpath "http://ns.adobe.com/XPath/1.0/">
]>
<svg version="1.1" id="Calque_1" xmlns:x="&ns_extend;" xmlns:i="&ns_ai;" xmlns:graph="&ns_graphs;"
	 xmlns="http://www.w3.org/2000/svg" xmlns:xlink="http://www.w3.org/1999/xlink" x="0px" y="0px" width="800px" height="600px"
	 viewBox="0 0 800 600" enable-background="new 0 0 800 600" xml:space="preserve">
<metadata><?xpacket begin="﻿" id="W5M0MpCehiHzreSzNTczkc9d"?>
<x:xmpmeta xmlns:x="adobe:ns:meta/" x:xmptk="Adobe XMP Core 5.0-c060 61.134777, 2010/02/12-17:32:00        ">
   <rdf:RDF xmlns:rdf="http://www.w3.org/1999/02/22-rdf-syntax-ns#">
      <rdf:Description rdf:about=""
            xmlns:dc="http://purl.org/dc/elements/1.1/">
         <dc:format>image/svg+xml</dc:format>
         <dc:title>
            <rdf:Alt>
               <rdf:li xml:lang="x-default">Web</rdf:li>
            </rdf:Alt>
         </dc:title>
      </rdf:Description>
      <rdf:Description rdf:about=""
            xmlns:xmp="http://ns.adobe.com/xap/1.0/"
            xmlns:xmpGImg="http://ns.adobe.com/xap/1.0/g/img/">
         <xmp:CreatorTool>Adobe Illustrator CS5</xmp:CreatorTool>
         <xmp:CreateDate>2017-04-06T07:39:39+02:00</xmp:CreateDate>
         <xmp:ModifyDate>2017-04-06T07:39:39+02:00</xmp:ModifyDate>
         <xmp:MetadataDate>2017-04-06T07:39:39+02:00</xmp:MetadataDate>
         <xmp:Thumbnails>
            <rdf:Alt>
               <rdf:li rdf:parseType="Resource">
                  <xmpGImg:width>256</xmpGImg:width>
                  <xmpGImg:height>144</xmpGImg:height>
                  <xmpGImg:format>JPEG</xmpGImg:format>
                  <xmpGImg:image>/9j/4AAQSkZJRgABAgEASABIAAD/7QAsUGhvdG9zaG9wIDMuMAA4QklNA+0AAAAAABAASAAAAAEA&#xA;AQBIAAAAAQAB/+4ADkFkb2JlAGTAAAAAAf/bAIQABgQEBAUEBgUFBgkGBQYJCwgGBggLDAoKCwoK&#xA;DBAMDAwMDAwQDA4PEA8ODBMTFBQTExwbGxscHx8fHx8fHx8fHwEHBwcNDA0YEBAYGhURFRofHx8f&#xA;Hx8fHx8fHx8fHx8fHx8fHx8fHx8fHx8fHx8fHx8fHx8fHx8fHx8fHx8fHx8f/8AAEQgAkAEAAwER&#xA;AAIRAQMRAf/EAaIAAAAHAQEBAQEAAAAAAAAAAAQFAwIGAQAHCAkKCwEAAgIDAQEBAQEAAAAAAAAA&#xA;AQACAwQFBgcICQoLEAACAQMDAgQCBgcDBAIGAnMBAgMRBAAFIRIxQVEGE2EicYEUMpGhBxWxQiPB&#xA;UtHhMxZi8CRygvElQzRTkqKyY3PCNUQnk6OzNhdUZHTD0uIIJoMJChgZhJRFRqS0VtNVKBry4/PE&#xA;1OT0ZXWFlaW1xdXl9WZ2hpamtsbW5vY3R1dnd4eXp7fH1+f3OEhYaHiImKi4yNjo+Ck5SVlpeYmZ&#xA;qbnJ2en5KjpKWmp6ipqqusra6voRAAICAQIDBQUEBQYECAMDbQEAAhEDBCESMUEFURNhIgZxgZEy&#xA;obHwFMHR4SNCFVJicvEzJDRDghaSUyWiY7LCB3PSNeJEgxdUkwgJChgZJjZFGidkdFU38qOzwygp&#xA;0+PzhJSktMTU5PRldYWVpbXF1eX1RlZmdoaWprbG1ub2R1dnd4eXp7fH1+f3OEhYaHiImKi4yNjo&#xA;+DlJWWl5iZmpucnZ6fkqOkpaanqKmqq6ytrq+v/aAAwDAQACEQMRAD8Am35M/kz+Vus/lb5b1TVP&#xA;Ldpd6hd2iyXNzIrF3cswqaNirNP+VA/k1/1Kdj/wLf8ANWKu/wCVA/k1/wBSnY/8C3/NWKu/5UD+&#xA;TX/Up2P/AALf81Yq7/lQP5Nf9SnY/wDAt/zVirv+VA/k1/1Kdj/wLf8ANWKu/wCVA/k1/wBSnY/8&#xA;C3/NWKu/5UD+TX/Up2P/AALf81Yq7/lQP5Nf9SnY/wDAt/zVirv+VA/k1/1Kdj/wLf8ANWKu/wCV&#xA;A/k1/wBSnY/8C3/NWKu/5UD+TX/Up2P/AALf81Yq7/lQP5Nf9SnY/wDAt/zVirv+VA/k1/1Kdj/w&#xA;Lf8ANWKu/wCVA/k1/wBSnY/8C3/NWKu/5UD+TX/Up2P/AALf81Yq7/lQP5Nf9SnY/wDAt/zVirv+&#xA;VA/k1/1Kdj/wLf8ANWKu/wCVA/k1/wBSnY/8C3/NWKu/5UD+TX/Up2P/AALf81Yq7/lQP5Nf9SnY&#xA;/wDAt/zVirv+VA/k1/1Kdj/wLf8ANWKu/wCVA/k1/wBSnY/8C3/NWKu/5UD+TX/Up2P/AALf81Yq&#xA;7/lQP5Nf9SnY/wDAt/zVirv+VA/k1/1Kdj/wLf8ANWKu/wCVA/k1/wBSnY/8C3/NWKu/5UD+TX/U&#xA;p2P/AALf81Yq7/lQP5Nf9SnY/wDAt/zVirv+VA/k1/1Kdj/wLf8ANWKu/wCVA/k1/wBSnY/8C3/N&#xA;WKsL/Ob8mfyt0b8rfMmqaX5btLTULS0aS2uY1YOjhlFRVsVZp+QP/kmvKf8AzAr/AMSbFWf4q7FX&#xA;Yq7FXYq7FXYq7FXYqo3l9ZWUJnvLiO2gBAMszrGlT0HJiBiqA/xZ5V/6vNj/ANJMP/NWKu/xZ5V/&#xA;6vNj/wBJMP8AzVirv8WeVf8Aq82P/STD/wA1Yq7/ABZ5V/6vNj/0kw/81Yq7/FnlX/q82P8A0kw/&#xA;81Yq7/FnlX/q82P/AEkw/wDNWKu/xZ5V/wCrzY/9JMP/ADVirv8AFnlX/q82P/STD/zVirv8WeVf&#xA;+rzY/wDSTD/zVirv8WeVf+rzY/8ASTD/AM1Yq7/FnlX/AKvNj/0kw/8ANWKu/wAWeVf+rzY/9JMP&#xA;/NWKu/xZ5V/6vNj/ANJMP/NWKpjbXVtdQJcW0qTwSbpLEwdGANNmWoOKqmKuxV2KuxV2KuxVgH5/&#xA;f+Sa82f8wLf8SXFXfkD/AOSa8p/8wK/8SbFWf4q7FXYqwP8AML8xtQ8qa7odjDppvrTVWEdxOtaw&#xA;O95a20bPuFCN9ZKVP7ZTsTirH9L/AOcnvy81HS/0nHa6nFaelPIWkgiLB7ZGkki4xzSHnwCt/LR1&#xA;JP2uKr1DRdWs9Z0ax1ey5Gz1G3iu7YyKUf050EiclO4PFumKozFXYq7FWI/mPb29zD5eguIkmgk1&#xA;yyEkUihkYfHsVNQcVTn/AAn5V/6s1j/0jQ/804q7/CflX/qzWP8A0jQ/804q7/CflX/qzWP/AEjQ&#xA;/wDNOKu/wn5V/wCrNY/9I0P/ADTirv8ACflX/qzWP/SND/zTirv8J+Vf+rNY/wDSND/zTirv8J+V&#xA;f+rNY/8ASND/AM04q7/CflX/AKs1j/0jQ/8ANOKu/wAJ+Vf+rNY/9I0P/NOKu/wn5V/6s1j/ANI0&#xA;P/NOKu/wn5V/6s1j/wBI0P8AzTirv8J+Vf8AqzWP/SND/wA04q7/AAn5V/6s1j/0jQ/804qlH5WR&#xA;xxeTIY41CRpe6mqIoAVVGo3AAAHQDFWWYq7FXYq7FXYq7FWAfn9/5JrzZ/zAt/xJcVd+QP8A5Jry&#xA;n/zAr/xJsVZ/irsVdiriAeorTFVnoQ+oJPTX1ASQ9ByBICk1+Qpiq/FXYq7FXYqxvzzpes39lpsm&#xA;kQRXN3p+o2979XnlMCOkPLkvqBJaH4v5cVUf01+Y/wD1K9j/ANxZv+yPFXfpr8x/+pXsf+4s3/ZH&#xA;irv01+Y//Ur2P/cWb/sjxV36a/Mf/qV7H/uLN/2R4q79NfmP/wBSvY/9xZv+yPFXfpr8x/8AqV7H&#xA;/uLN/wBkeKu/TX5j/wDUr2P/AHFm/wCyPFXfpr8x/wDqV7H/ALizf9keKu/TX5j/APUr2P8A3Fm/&#xA;7I8Vd+mvzH/6lex/7izf9keKu/TX5j/9SvY/9xZv+yPFXfpr8x/+pXsf+4s3/ZHirv01+Y//AFK9&#xA;j/3Fm/7I8VRXkPSNS0nyxBZ6mkcd9693cTRwuZUX6zdy3AUOVTlRZQK8RirIMVdirsVdirsVdirA&#xA;Pz+/8k15s/5gW/4kuKu/IH/yTXlP/mBX/iTYqz/FXYq7FXYq7FXYq7FXYq7FXYq7FXYq7FXYq7FX&#xA;Yq7FXYq7FXYq7FXYq7FXYq7FXYq7FXYq7FXYqwD8/v8AyTXmz/mBb/iS4q78gf8AyTXlP/mBX/iT&#xA;Yqz/ABV2KuxV2KuxV2KuxV2KuxVLte8w6ToNkt5qkzQwPIkEZSOWZ2kk+yqxwrI5Jp2GKpN/ys/y&#xA;h/vy+/7hepf9k+Ku/wCVn+UP9+X3/cL1L/snxV3/ACs/yh/vy+/7hepf9k+Ku/5Wf5Q/35ff9wvU&#xA;v+yfFXf8rP8AKH+/L7/uF6l/2T4q7/lZ/lD/AH5ff9wvUv8AsnxV3/Kz/KH+/L7/ALhepf8AZPir&#xA;v+Vn+UP9+X3/AHC9S/7J8Vd/ys/yh/vy+/7hepf9k+Ku/wCVn+UP9+X3/cL1L/snxV3/ACs/yh/v&#xA;y+/7hepf9k+Ku/5Wf5Q/35ff9wvUv+yfFXf8rP8AKH+/L7/uF6l/2T4qnui61putabDqWmzevZT8&#xA;xHIUeM1jcxuCkgV1KupBBGKo3FXYq7FXYq7FXYqwD8/v/JNebP8AmBb/AIkuKu/IH/yTXlP/AJgV&#xA;/wCJNirP8VdirsVYp5qu/N9lrVtdaJpc+q2/6Ovo/QjmtooVvS0L2rTrPNAxU+m68kDEV7A1xVj/&#xA;AOV3nrzR5g82+atK8wxRWd1okenQ/o+IfYkkikkmkqrTL+8LL8IkbhTjVqc2Vel4q7FXYq7FWK+f&#xA;/wDpnP8AtuWX/G+KsqxV2KuxV2KuxV2KuxV2KuxV2KuxV2KuxViv5Yf8ohH/AMx2qf8AdSuMVZVi&#xA;rsVdirsVdirsVYB+f3/kmvNn/MC3/ElxV35A/wDkmvKf/MCv/EmxVn+KuxV2KuxV2KuxV2KuxV2K&#xA;pF5v8v6hrVlZpp97FYXtheQ30E9xbtdRFoa/C8STWzEHl2kGKoL9G/mn/wBTDof/AHBLz/vLYq79&#xA;G/mn/wBTDof/AHBLz/vLYq79G/mn/wBTDof/AHBLz/vLYq79G/mn/wBTDof/AHBLz/vLYq79G/mn&#xA;/wBTDof/AHBLz/vLYq79G/mn/wBTDof/AHBLz/vLYq79G/mn/wBTDof/AHBLz/vLYq79G/mn/wBT&#xA;Dof/AHBLz/vLYq79G/mn/wBTDof/AHBLz/vLYq79G/mn/wBTDof/AHBLz/vLYq79G/mn/wBTDof/&#xA;AHBLz/vLYq79G/mn/wBTDof/AHBLz/vLYq79G/mn/wBTDof/AHBLz/vLYqmPk/QLjQdAg0y5ukvb&#xA;hJLiaa5jiMCM9zcSXDcYjJMVAMtAC5+eKpzirsVdirsVdirsVYB+f3/kmvNn/MC3/ElxV35A/wDk&#xA;mvKf/MCv/EmxVn+KuxV2KuxV2KuxV2KuxV2KuxV2KuxV2KuxV2KuxV2KuxV2KuxV2KuxV2KuxV2K&#xA;uxV2KuxV2KuxVgH5/f8AkmvNn/MC3/ElxV35A/8AkmvKf/MCv/EmxVn+KuxV2KuxV2KuxV2KuxV2&#xA;Kpfrmv6PoVkL3VrlbW2aRYlkYM1ZH+yoChiSfliqS/8AK0vIn/Vz/wCSFx/1TxV3/K0vIn/Vz/5I&#xA;XH/VPFXf8rS8if8AVz/5IXH/AFTxV3/K0vIn/Vz/AOSFx/1TxV3/ACtLyJ/1c/8Akhcf9U8Vd/yt&#xA;LyJ/1c/+SFx/1TxV3/K0vIn/AFc/+SFx/wBU8Vd/ytLyJ/1c/wDkhcf9U8Vd/wArS8if9XP/AJIX&#xA;H/VPFXf8rS8if9XP/khcf9U8Vd/ytLyJ/wBXP/khcf8AVPFXf8rS8if9XP8A5IXH/VPFXf8AK0vI&#xA;n/Vz/wCSFx/1TxVPtI1fTdY06LUdMnW5sp+XpTLUA8GKNsQDsykHFUZirsVdirsVdirsVYB+f3/k&#xA;mvNn/MC3/ElxV35A/wDkmvKf/MCv/EmxVn+KuxV2KsS89ed9V8szaell5av9ejvEumnnslrHbfV4&#xA;g6esQrUErHiPppUjiVWEav8AnH+Yb2z2+n+RNQt7mW2MkV+sc95FFMWRo0ZBBCDygkDVL1V6rwYC&#xA;pVeyYq7FXYq7FWK+f/8ApnP+25Zf8b4qyrFXYq7FXYq7FXYq7FXYq7FXYq7FXYq7FWK/lh/yiEf/&#xA;ADHap/3UrjFWVYq7FXYq7FXYq7FWAfn9/wCSa82f8wLf8SXFXfkD/wCSa8p/8wK/8SbFWf4q7FXY&#xA;q7FXYq7FXYq7FXYqx/znoeq6tZWP6KlgivbC+gvo/rQcxN6PKqt6fxb8sVQv/IVP+1H/ANPmKu/5&#xA;Cp/2o/8Ap8xV3/IVP+1H/wBPmKu/5Cp/2o/+nzFXf8hU/wC1H/0+Yq7/AJCp/wBqP/p8xV3/ACFT&#xA;/tR/9PmKu/5Cp/2o/wDp8xV3/IVP+1H/ANPmKu/5Cp/2o/8Ap8xV3/IVP+1H/wBPmKu/5Cp/2o/+&#xA;nzFXf8hU/wC1H/0+YqjvJWh3uieXYNPvpY5rtZbmeZ4Awj5XNzJcUXl8VF9Wm+Kp5irsVdirsVdi&#xA;rsVYB+f3/kmvNn/MC3/ElxV35A/+Sa8p/wDMCv8AxJsVZ/irsVdirsVdirsVdirsVdirsVdirsVd&#xA;irsVdirsVdirsVdirsVdirsVdirsVdirsVdirsVdirsVYB+f3/kmvNn/ADAt/wASXFXfkD/5Jryn&#xA;/wAwK/8AEmxVn+KuxV2KuxV2KuxV2KuxV2KuxV2KuxV2KuxV2KuxV2KuxV2KuxVJvOOu3Gg+Wr3V&#xA;reBLme2VPSgkYxozPIsY5MA5A+LwxVI4df8AP8+oXGmwx+W5dRtFR7qyTUrlp4lkFUaSMWvNQw6V&#xA;G+Kov6z+an/Vu0P/AKTrz/skxVMPJuu3Wu+XoNSu4I7a6aW5gmhicyRh7a4ktyVdlQkH0q7qMVTr&#xA;FXYq7FXYq7FXYqwD8/v/ACTXmz/mBb/iS4q78gf/ACTXlP8A5gV/4k2Ks/xV2KuxV2KuxV2KuxV2&#xA;KuxV2KuxV2KuxV2KuxV2KuxV2KuxV2KsV/NL/lBNT/54f9REeKpP5m/LLzBqes6jqekeaJNBkvnt&#xA;5K20EhcGAwcvUK3MaPzW24VCKSp4v6iqgVVE+Svy/wDM/l3WzeX/AJzv9e076m9qmm3q8qSev6kU&#xA;5laR2LpDSI7Vb7RPbFUf+WH/ACiEf/Mdqn/dSuMVZVirsVdirsVdirsVYB+f3/kmvNn/ADAt/wAS&#xA;XFXfkD/5Jryn/wAwK/8AEmxVn+KuxV2KuxV2KuxV2KuxV2KuxV2KuxV2KuxV2KuxV2KuxV2KuxVC&#xA;6rpWn6tp8+najAtzZXK8J4HrRhWtDSh6jFWP/wDKrfIn/Vs/5L3H/VTFXf8AKrfIn/Vs/wCS9x/1&#xA;UxVPtI0jTdH06LTtMgW2soOXpQrUgc2LtuSTuzEnFUZirsVdirsVdirsVYB+f3/kmvNn/MC3/Elx&#xA;V35A/wDkmvKf/MCv/EmxVn+KuxV2KuxV2KuxV2KuxV2KuxV2KuxV2KuxV2KuxV2KuxV2KuxV2Kux&#xA;V2KuxV2KuxV2KuxV2KuxVgH5/f8AkmvNn/MC3/ElxVhn5O/nB+Xehflh5d0jVtVNrqNlaLFc27W1&#xA;0xRwxNCViZe/Y4qzL/lff5Tf9X3/AKdbz/qjirv+V9/lN/1ff+nW8/6o4q7/AJX3+U3/AFff+nW8&#xA;/wCqOKu/5X3+U3/V9/6dbz/qjirv+V9/lN/1ff8Ap1vP+qOKu/5X3+U3/V9/6dbz/qjirv8Alff5&#xA;Tf8AV9/6dbz/AKo4q7/lff5Tf9X3/p1vP+qOKu/5X3+U3/V9/wCnW8/6o4q7/lff5Tf9X3/p1vP+&#xA;qOKu/wCV9/lN/wBX3/p1vP8Aqjirv+V9/lN/1ff+nW8/6o4q7/lff5Tf9X3/AKdbz/qjirv+V9/l&#xA;N/1ff+nW8/6o4q7/AJX3+U3/AFff+nW8/wCqOKu/5X3+U3/V9/6dbz/qjirv+V9/lN/1ff8Ap1vP&#xA;+qOKu/5X3+U3/V9/6dbz/qjirv8Alff5Tf8AV9/6dbz/AKo4q7/lff5Tf9X3/p1vP+qOKu/5X3+U&#xA;3/V9/wCnW8/6o4q7/lff5Tf9X3/p1vP+qOKu/wCV9/lN/wBX3/p1vP8Aqjirv+V9/lN/1ff+nW8/&#xA;6o4q7/lff5Tf9X3/AKdbz/qjirv+V9/lN/1ff+nW8/6o4q7/AJX3+U3/AFff+nW8/wCqOKu/5X3+&#xA;U3/V9/6dbz/qjirv+V9/lN/1ff8Ap1vP+qOKu/5X3+U3/V9/6dbz/qjirDfzi/OD8u9d/LDzFpGk&#xA;6qbrUb20aK2t1trpS7lgaAtEq9u5xV//2Q==</xmpGImg:image>
               </rdf:li>
            </rdf:Alt>
         </xmp:Thumbnails>
      </rdf:Description>
      <rdf:Description rdf:about=""
            xmlns:xmpMM="http://ns.adobe.com/xap/1.0/mm/"
            xmlns:stRef="http://ns.adobe.com/xap/1.0/sType/ResourceRef#"
            xmlns:stEvt="http://ns.adobe.com/xap/1.0/sType/ResourceEvent#">
         <xmpMM:RenditionClass>proof:pdf</xmpMM:RenditionClass>
         <xmpMM:OriginalDocumentID>uuid:65E6390686CF11DBA6E2D887CEACB407</xmpMM:OriginalDocumentID>
         <xmpMM:DocumentID>xmp.did:04801174072068118C14E8D79F052FC4</xmpMM:DocumentID>
         <xmpMM:InstanceID>xmp.iid:04801174072068118C14E8D79F052FC4</xmpMM:InstanceID>
         <xmpMM:DerivedFrom rdf:parseType="Resource">
            <stRef:instanceID>xmp.iid:03801174072068118C14E8D79F052FC4</stRef:instanceID>
            <stRef:documentID>xmp.did:03801174072068118C14E8D79F052FC4</stRef:documentID>
            <stRef:originalDocumentID>uuid:65E6390686CF11DBA6E2D887CEACB407</stRef:originalDocumentID>
            <stRef:renditionClass>proof:pdf</stRef:renditionClass>
         </xmpMM:DerivedFrom>
         <xmpMM:History>
            <rdf:Seq>
               <rdf:li rdf:parseType="Resource">
                  <stEvt:action>saved</stEvt:action>
                  <stEvt:instanceID>xmp.iid:01801174072068118C14E8D79F052FC4</stEvt:instanceID>
                  <stEvt:when>2017-04-06T07:14:33+02:00</stEvt:when>
                  <stEvt:softwareAgent>Adobe Illustrator CS5</stEvt:softwareAgent>
                  <stEvt:changed>/</stEvt:changed>
               </rdf:li>
               <rdf:li rdf:parseType="Resource">
                  <stEvt:action>saved</stEvt:action>
                  <stEvt:instanceID>xmp.iid:03801174072068118C14E8D79F052FC4</stEvt:instanceID>
                  <stEvt:when>2017-04-06T07:28:48+02:00</stEvt:when>
                  <stEvt:softwareAgent>Adobe Illustrator CS5</stEvt:softwareAgent>
                  <stEvt:changed>/</stEvt:changed>
               </rdf:li>
               <rdf:li rdf:parseType="Resource">
                  <stEvt:action>saved</stEvt:action>
                  <stEvt:instanceID>xmp.iid:04801174072068118C14E8D79F052FC4</stEvt:instanceID>
                  <stEvt:when>2017-04-06T07:39:39+02:00</stEvt:when>
                  <stEvt:softwareAgent>Adobe Illustrator CS5</stEvt:softwareAgent>
                  <stEvt:changed>/</stEvt:changed>
               </rdf:li>
            </rdf:Seq>
         </xmpMM:History>
      </rdf:Description>
      <rdf:Description rdf:about=""
            xmlns:illustrator="http://ns.adobe.com/illustrator/1.0/">
         <illustrator:StartupProfile>Web</illustrator:StartupProfile>
      </rdf:Description>
      <rdf:Description rdf:about=""
            xmlns:xmpTPg="http://ns.adobe.com/xap/1.0/t/pg/"
            xmlns:stDim="http://ns.adobe.com/xap/1.0/sType/Dimensions#"
            xmlns:stFnt="http://ns.adobe.com/xap/1.0/sType/Font#"
            xmlns:xmpG="http://ns.adobe.com/xap/1.0/g/">
         <xmpTPg:NPages>1</xmpTPg:NPages>
         <xmpTPg:HasVisibleTransparency>False</xmpTPg:HasVisibleTransparency>
         <xmpTPg:HasVisibleOverprint>False</xmpTPg:HasVisibleOverprint>
         <xmpTPg:MaxPageSize rdf:parseType="Resource">
            <stDim:w>800.000000</stDim:w>
            <stDim:h>600.000000</stDim:h>
            <stDim:unit>Pixels</stDim:unit>
         </xmpTPg:MaxPageSize>
         <xmpTPg:Fonts>
            <rdf:Bag>
               <rdf:li rdf:parseType="Resource">
                  <stFnt:fontName>Dauphine-Regular</stFnt:fontName>
                  <stFnt:fontFamily>Dauphine</stFnt:fontFamily>
                  <stFnt:fontFace>Regular</stFnt:fontFace>
                  <stFnt:fontType>Open Type</stFnt:fontType>
                  <stFnt:versionString>1.000</stFnt:versionString>
                  <stFnt:composite>False</stFnt:composite>
                  <stFnt:fontFileName>Dauphine Regular.otf</stFnt:fontFileName>
               </rdf:li>
            </rdf:Bag>
         </xmpTPg:Fonts>
         <xmpTPg:PlateNames>
            <rdf:Seq>
               <rdf:li>Cyan</rdf:li>
               <rdf:li>Magenta</rdf:li>
               <rdf:li>Yellow</rdf:li>
               <rdf:li>Black</rdf:li>
            </rdf:Seq>
         </xmpTPg:PlateNames>
         <xmpTPg:SwatchGroups>
            <rdf:Seq>
               <rdf:li rdf:parseType="Resource">
                  <xmpG:groupName>Groupe de nuances par défaut</xmpG:groupName>
                  <xmpG:groupType>0</xmpG:groupType>
               </rdf:li>
            </rdf:Seq>
         </xmpTPg:SwatchGroups>
      </rdf:Description>
      <rdf:Description rdf:about=""
            xmlns:pdf="http://ns.adobe.com/pdf/1.3/">
         <pdf:Producer>Adobe PDF library 9.90</pdf:Producer>
      </rdf:Description>
   </rdf:RDF>
</x:xmpmeta>
                                                                                                    
                                                                                                    
                                                                                                    
                                                                                                    
                                                                                                    
                                                                                                    
                                                                                                    
                                                                                                    
                                                                                                    
                                                                                                    
                                                                                                    
                                                                                                    
                                                                                                    
                                                                                                    
                                                                                                    
                                                                                                    
                                                                                                    
                                                                                                    
                                                                                                    
                                                                                                    
                           
<?xpacket end="w"?>
	</metadata>
<rect x="107.5" y="26.5" fill="#FFFFFF" stroke="#000000" stroke-width="3.4669" stroke-miterlimit="10" width="555" height="310"/>
<rect x="293.5" y="59.5" fill="#FFFFFF" stroke="#000000" stroke-width="2" stroke-miterlimit="10" width="234" height="28"/>
<rect x="184" y="66.25" fill="none" width="100.5" height="14.5"/>
<text transform="matrix(1 0 0 1 184.002 76.123)" font-family="'Dauphine-Regular'" font-size="14">Name</text>
<rect x="293.5" y="126.548" fill="#FFFFFF" stroke="#000000" stroke-width="2" stroke-miterlimit="10" width="234" height="28"/>
<rect x="184" y="142.25" fill="none" width="100.5" height="14.5"/>
<text transform="matrix(1 0 0 1 184.002 143.1724)" font-family="'Dauphine-Regular'" font-size="14">Log</text>
<rect x="487.5" y="260.741" fill="#FFFFFF" stroke="#000000" stroke-width="2" stroke-miterlimit="10" width="40" height="28"/>
<rect x="493.18" y="219.772" transform="matrix(-1 -0.0014 0.0014 -1 1086.5422 454.8041)" fill="none" width="100.5" height="14.5"/>
<text transform="matrix(1 0 0 1 493.1914 278.8008)" font-family="'Dauphine-Regular'" font-size="14">Save</text>
<rect x="293.5" y="197.375" fill="#FFFFFF" stroke="#000000" stroke-width="2" stroke-miterlimit="10" width="234" height="28"/>
<text transform="matrix(1 0 0 1 184.002 213.9941)" font-family="'Dauphine-Regular'" font-size="14">email</text>
</svg>
