<?xml version="1.0" encoding="utf-8"?>
<!-- Generator: Adobe Illustrator 15.0.2, SVG Export Plug-In . SVG Version: 6.00 Build 0)  -->
<!DOCTYPE svg PUBLIC "-//W3C//DTD SVG 1.1//EN" "http://www.w3.org/Graphics/SVG/1.1/DTD/svg11.dtd" [
	<!ENTITY ns_extend "http://ns.adobe.com/Extensibility/1.0/">
	<!ENTITY ns_ai "http://ns.adobe.com/AdobeIllustrator/10.0/">
	<!ENTITY ns_graphs "http://ns.adobe.com/Graphs/1.0/">
	<!ENTITY ns_vars "http://ns.adobe.com/Variables/1.0/">
	<!ENTITY ns_imrep "http://ns.adobe.com/ImageReplacement/1.0/">
	<!ENTITY ns_sfw "http://ns.adobe.com/SaveForWeb/1.0/">
	<!ENTITY ns_custom "http://ns.adobe.com/GenericCustomNamespace/1.0/">
	<!ENTITY ns_adobe_xpath "http://ns.adobe.com/XPath/1.0/">
]>
<svg version="1.1" id="Calque_1" xmlns:x="&ns_extend;" xmlns:i="&ns_ai;" xmlns:graph="&ns_graphs;"
	 xmlns="http://www.w3.org/2000/svg" xmlns:xlink="http://www.w3.org/1999/xlink" x="0px" y="0px" width="800px" height="600px"
	 viewBox="0 0 800 600" enable-background="new 0 0 800 600" xml:space="preserve">
<metadata><?xpacket begin="﻿" id="W5M0MpCehiHzreSzNTczkc9d"?>
<x:xmpmeta xmlns:x="adobe:ns:meta/" x:xmptk="Adobe XMP Core 5.0-c060 61.134777, 2010/02/12-17:32:00        ">
   <rdf:RDF xmlns:rdf="http://www.w3.org/1999/02/22-rdf-syntax-ns#">
      <rdf:Description rdf:about=""
            xmlns:dc="http://purl.org/dc/elements/1.1/">
         <dc:format>image/svg+xml</dc:format>
         <dc:title>
            <rdf:Alt>
               <rdf:li xml:lang="x-default">Web</rdf:li>
            </rdf:Alt>
         </dc:title>
      </rdf:Description>
      <rdf:Description rdf:about=""
            xmlns:xmp="http://ns.adobe.com/xap/1.0/"
            xmlns:xmpGImg="http://ns.adobe.com/xap/1.0/g/img/">
         <xmp:CreatorTool>Adobe Illustrator CS5</xmp:CreatorTool>
         <xmp:CreateDate>2017-04-06T07:59:23+02:00</xmp:CreateDate>
         <xmp:ModifyDate>2017-04-06T07:59:23+02:00</xmp:ModifyDate>
         <xmp:MetadataDate>2017-04-06T07:59:23+02:00</xmp:MetadataDate>
         <xmp:Thumbnails>
            <rdf:Alt>
               <rdf:li rdf:parseType="Resource">
                  <xmpGImg:width>256</xmpGImg:width>
                  <xmpGImg:height>108</xmpGImg:height>
                  <xmpGImg:format>JPEG</xmpGImg:format>
                  <xmpGImg:image>/9j/4AAQSkZJRgABAgEASABIAAD/7QAsUGhvdG9zaG9wIDMuMAA4QklNA+0AAAAAABAASAAAAAEA&#xA;AQBIAAAAAQAB/+4ADkFkb2JlAGTAAAAAAf/bAIQABgQEBAUEBgUFBgkGBQYJCwgGBggLDAoKCwoK&#xA;DBAMDAwMDAwQDA4PEA8ODBMTFBQTExwbGxscHx8fHx8fHx8fHwEHBwcNDA0YEBAYGhURFRofHx8f&#xA;Hx8fHx8fHx8fHx8fHx8fHx8fHx8fHx8fHx8fHx8fHx8fHx8fHx8fHx8fHx8f/8AAEQgAbAEAAwER&#xA;AAIRAQMRAf/EAaIAAAAHAQEBAQEAAAAAAAAAAAQFAwIGAQAHCAkKCwEAAgIDAQEBAQEAAAAAAAAA&#xA;AQACAwQFBgcICQoLEAACAQMDAgQCBgcDBAIGAnMBAgMRBAAFIRIxQVEGE2EicYEUMpGhBxWxQiPB&#xA;UtHhMxZi8CRygvElQzRTkqKyY3PCNUQnk6OzNhdUZHTD0uIIJoMJChgZhJRFRqS0VtNVKBry4/PE&#xA;1OT0ZXWFlaW1xdXl9WZ2hpamtsbW5vY3R1dnd4eXp7fH1+f3OEhYaHiImKi4yNjo+Ck5SVlpeYmZ&#xA;qbnJ2en5KjpKWmp6ipqqusra6voRAAICAQIDBQUEBQYECAMDbQEAAhEDBCESMUEFURNhIgZxgZEy&#xA;obHwFMHR4SNCFVJicvEzJDRDghaSUyWiY7LCB3PSNeJEgxdUkwgJChgZJjZFGidkdFU38qOzwygp&#xA;0+PzhJSktMTU5PRldYWVpbXF1eX1RlZmdoaWprbG1ub2R1dnd4eXp7fH1+f3OEhYaHiImKi4yNjo&#xA;+DlJWWl5iZmpucnZ6fkqOkpaanqKmqq6ytrq+v/aAAwDAQACEQMRAD8A6prX52ahpuqXtqmgwz29&#xA;ncPb+ub6SNiRcTW0ZZTamNTK9rJxUSk0GKoT/lf14pBm8upFH3f65LLT/Yw2kr/8Liq5f+cgo+Sg&#xA;6KZORoEga/dyT0or2EQP/BYqiT+eko6+VtS+iC7P6rbFW4vz3HqKJfKesujGnG2tLiSWp6USSKBT&#xA;v/l4qjW/OuBByl8lea4l/nl0wRr/AME8oGKrD+eenjp5T8yH5WcP8bjFVv8AyvbTB/eeVvMMS/zy&#xA;21rEg+bvcqo+/FWj+fvlpHQXOkarbRuePrutkyKaE/H6V1IVG1KkUriqPb86fKaCskNzEv8APKbW&#xA;NR82edVGKrf+V4+RF3luPTTu/rWclP8AYxXDv9wxV3/K9fy3/wCrj16bL/zVirv+V7/lmu8uqemn&#xA;d+DSU/2MXN/uGKr4vz1/KyaQRxa00kjfZRLO9YmgrsBDiqI/5XL+Xf8A1cJ9/wDlwv8A/qhiq+L8&#xA;3/IE0gjivbmSRvsomn6gxNBXYC3xVED8z/J1QGnu4wf25dO1CNB82eBVH34qyHTNT0/VLGC/0+dL&#xA;mzuUWWGaM1VkdQyn6QR1xVE4q7FXYq7FWJfmv5xvfJn5e6z5msoI7i706ONoYZuXplpJki+LiVag&#xA;512OKvJdB/5yZGuWgnjujAqnjMF021hZXoCVBuNYbku/Xhv7YqmL/npZBS9zrd5AB3WLQ4Y6U8Zr&#xA;2Tf/AGX0YqhYvz+8oOwD+bdci7li3ljjXwoFc4qiI/zv8izvxPmnXLmSnwqkuiq1BuaJb8K/cTiq&#xA;pD+cH5VStxudY8x8Tu7vNcxhu/8Ax7OpWv8AkAYqiovzM/JmZwkWp+YJJKGiJe66xPc7CfFUTF54&#xA;/JiRuM41cqa85LmPWZ+Xs9fVZq++KomPzR+Qk0gT9Hi6Y14xy6LqE42FSQslq46DriqlpHm/8prX&#xA;8wdIfQbaPTTdWV3YySQ6Tc2Qee6u7CO2R2NvEKM/whm+EEgEgsKqqHkHyh/iDWfNeszate2dxY+Z&#xA;dQtLaK2WzaIR27ThKrcW85Y/7kritT+17LRVnP8Ayr+Ft5tZvpW/m4WEe3hxhtY1/CuKtP8AlvpE&#xA;qlLm9vp4yCChkjjFD1r6McdfpxVDH8nvJDbSQTundfrEiV/2UZRx9BxVa/5L/lxIjRvpszI4Kspv&#xA;7+hB2IP7/FUN/wAqE/Kb/qxf9PV5/wBVsVV1/I78qVQJ/h23YAUqzzMT8yzkn6cVRMH5QfljAnBP&#xA;LdkVrX44+Z+9yxxVK/M/5a/l/aW+nm28vWEbS6lZRO4gTlweYBlDEVAYHemKsk/wB5N/6tMH3H+u&#xA;KuP5f+TabaVCD4ryUj5EEEYq7/Afln/fE/8A0mXf/VXFXHyH5ZptDcA+K3t4pHyImBGKrJvIHl+Z&#xA;DHNLqckZ6o+r6ow29jc4qhz+WHlAinp33/cU1L/soxVbN+VXkqZDHNBeSRnqj6lqLDb2NxiqHP5N&#xA;fl7T4bCdT2b69fGh8aNOR94xV2h+XLHyx5wtdP0mSdLHUrG/u7u2klZ42nt5LGKOQKdlYRyFduuK&#xA;s1xV2KuxV2KvMv8AnJb/AMkh5o/4xW//AFFw4qwb/nCeFx+XOtTmnB9YdF8apawE/wDExir6GxV2&#xA;KrJoIJ09OaNZU68XAYVHscVUP0TpX/LFB/yKT+mKqc2haJOnCbT7aVOvF4Y2FR7EYqof4T8q/wDV&#xA;msf+kaH/AJpxVZN5M8nzIY5tC0+SM9Ue1gYbexTFXmX5j+XtA0fzj5X/AERplpp3r+h6/wBUgjg5&#xA;8PM/l3jz9NV5ceRpXxxVkP5O1R/OkfXn5m1ScH/XnMfH/kjX6cVeiYq7FXYq7FXYq7FXYqx/zwKa&#xA;RaONnTVtI4t3HLU7dG+9WIxVkGKuxV2KuxV2KuxV2KqN3ci2hMpikmoQOES833NOg8MVSWUA+f7U&#xA;ncrpNxxPhyuYa0+fEYqyDFXYq7FXYq8v/wCcnJRF+RvmdiK1S0T/AIO9gX+OKsQ/5wqBH5V6p765&#xA;cU/6RLXFXv8AirsVdirsVdirsVdiryb81v8AlOfL/slhT6fNGi/0xVMfygnRtS862/7cWvXzH3WS&#xA;7nIP3gjFXpGKuxV2KuxV2KuxV2Ksf88/8cW27f7ltH/7qtrirIMVdirsVdirsVdirsVdirH5P+U/&#xA;t/8AtlT/APUTDirIMVdirsVdiryr/nKP/wAkT5m/6Mf+6hb4qxj/AJwt/wDJU6j/ANtu4/6hbbFX&#xA;vmKuxV2KuxV2KuxV2KvJvzVNfPnl1Bu7pY8V7nj5m0d2+5VJxVE/k6w/xJ59Wvxfpi4anehvLsA/&#xA;gcVeoYq7FXYq7FXYq7FXYqx/z3UeX1kG/oX+mTkeIh1G3kI+njTFWQYq7FXYq7FXYq7FXYq7FWPx&#xA;gHz/ADk7ldJh4nw5XMtafPiMVZBirsVdirsVeTf85UTrH+RvmBCCTM9ki07EXsL7/QmKpB/zhkhX&#xA;8prsn9vV7lh/yIgH8MVe8Yq7FXYq7FXYq7FXYq8h/Mo/8hS0AntFpwH065bYq1+R10115o86TMoW&#xA;SSS1mkp053Nxe3LcR2AM1Bir1/FXYq7FXYq7FXYq7FWP+fdvKt3J+zE9vK/skVxG7n6FU4qyDFXY&#xA;q7FXYq7FXYq7FXYqx+P/AJT+4/7ZUH/UTNirIMVdirsVdiryD/nLD/ySWr/8Z7P/AKiUxVLv+cOw&#xA;B+T9QKE6ldE+54xjFXuGKuxV2KuxV2KuxV2KvIvzLIH5l6Ef8nSh9+uW+KoX8gv+Uk85/LTf1XOK&#xA;vZ8VdirsVdirsVdirsVY/wDmAQPJesMdgtuzMewAoST8hirIMVdirsVdirsVdirsVdirH7IA+f8A&#xA;WCdyuk6ZxPhyudQrT58RirIMVdirsVdirxv/AJy1nWP8ldRQgkzXVmi07ETK+/0Jiqz/AJxGtvR/&#xA;Jiyk2/0m8u5dq9pPT3/5F4q9nxV2KuxV2KuxV2KuxV47+ZJp+Z1getF8ugf7LX6HFUP+QTk6/wCY&#xA;pBt9Zt9PklHbkbZJhT2H1phir2rFXYq7FXYq7FXYq7FWP/mH/wAoB5m/7ZV9/wBQz4qyDFXYq7FX&#xA;Yq7FXYq7FXYqx+y/5T/Wf+2VpX/UTqOKsgxV2KuxV2KvFf8AnL3/AMk3c/8AMdaf8SOKoz/nFJeP&#xA;5J6OP+Lrs/fcOcVevYq7FXYq7FXYq7FXYq8h/Mfj/wArDt60rz8rBfH/AI7sxNPuxVA/kLVNa1Lu&#xA;Li1tfo9DT9P/AF+v+GKvbMVdirsVdirsVdirsVY/+YYr5A8zD/tU33/UM+KsgxV2KuxV2KuxV2Ku&#xA;xV2KsfsgP8f6ye/6J0rf/o51HFWQYq7FXYq7FXiP/OYM6R/k86MCTNqNqi08Rzff6ExVNP8AnFeJ&#xA;k/JDQpDSkz3jLTrRbuWPf6UOKvWsVdirsVdirsVdirsVeM/ma5j8/tOoBeBvKckddxVdQ1ZqfIlB&#xA;XFVP8j19LWE5dbzTop0p4jS9EeQfQbhaYq9qxV2KuxV2KuxV2KuxVJvOkKT+TtdgevCXTrtGp1o0&#xA;Dg0xVMrCZ57G2mk+3LEjtTYVZQTiqvirsVdirsVdirsVdirH7L/lP9Z/7ZWlf9ROo4qyDFXYq7FX&#xA;Yq8K/wCcyf8AyUcP/bVtv+TU2Ksg/wCcXP8AyRPln/o+/wC6hcYq9VxV2KuxV2KuxV2KuxV4n+bk&#xA;jRebNRmX7cVv5akWvTkl1rLCv0jFVT8miP0xpI7/AKHbb/t0eWsVe0Yq7FXYq7FXYq7FXYql/mKA&#xA;3Hl/U4AeJmtJ4w3WnKNhXFXeXp/rGgaZccePrWkEnGtaco1NK7YqmGKuxV2KuxV2KuxV2Ksf0oA+&#xA;dNfY/a+raete/EfWCB8qsT9OKsgxV2KuxV2KvB/+czZkj/Ka0Rq1m1i2RKeIguH3+hTirJ/+cYYX&#xA;i/IzywrdSt2+3g99Ow/A4q9RxV2KuxV2KuxV2KuxV4P+cbsmreaZVP7yK30R4z1oY01R1+jliqM/&#xA;JR/V1LRJ6UWTSLpFHf8A0ey8vWxJ+bQE4q9sxV2KuxV2KuxV2KuxVQ1CF5rC5hjFZJInRB03ZSBi&#xA;qXeTJkn8n6FNH9iXT7R1rsaNAhGKpxirsVdirsVdirsVdirH9K/5TLzB/wAYLD9U2KsgxV2KuxV2&#xA;KvAP+c1f/JWaV/23Lf8A6g7vFWa/843f+SS8rf8AGCb/AKiZcVelYq7FXYq7FXYq7FXYq8M/Nmyv&#xA;b/XvMmn2MLXF5epoVtbQqyKWkmTU41+KRkQbtvU4qmXkTyXr/lDzvpOlX8kN3Yx2l+thqEJdWkjp&#xA;bLxmhZQsTgRL9l3DddqYq9hxV2KqU91a24BnmSEN9kyMFrTwqcVQ8uuaLDGZJdQto41+07zRqBU0&#xA;3JOKoY+bvKigk61YADck3MNAP+CxVC/8rE/L/wD6mbSf+k62/wCa8VWn8x/y8HXzRpH/AEn23/VT&#xA;FVN/zO/LxWoPMenyf5UVxHIv/BIWGKpT5F89eS7XyT5etrvXbC0uYdMs0lhubiKFwywIp+GRlOxB&#xA;GKp5/wArD8gf9TNpX/Sdbf8ANeKu/wCVh+QK0/xNpNfD69bf814q7/lYfkD/AKmbSv8ApOtv+a8V&#xA;VoPO3ky4BMGv6dKF2YpdwMAfej4qq/4s8q/9Xmx/6SYf+asVVoPMGg3AJg1K1lC7MUnjYA+9GxVV&#xA;/S2lf8tsH/I1P64qk3lyaCfzL5llhkWUetaoJEIYUW1Q8ajwLE098VZHirsVdirsVeb/AJ9/lZqH&#xA;5k+SYtE0+9isb20vEv4GnVjFI0cMsXpsy1ZAfWryCt06Yqo/l5ov5qeUfJmneX/0Lol4bFZP3x1e&#xA;6hZvVleanpjTZVUr6nH7ZHvirIv03+Zf/UrWH/cXb/sixVs61+Y4Ff8AC1iadhqxr9FbQYq3/iLz&#xA;3/1KP/cxt/8AmnFVknmXz6o+Hyaz7dF1G1/42pirf+LPOH/Uj6h/0maZ/wBlOKtHzb5xHTyPqB+V&#xA;5pf8brFV/wDjLzF/1Imuf8jtD/7yeKpR5b8sPqvnnWfNev8Alt7CWlkuiHUDZzXEZgjkWV0+qz3S&#xA;J8TinxVxVkPm3/BfG0/xN9W+0/1L6x1rQc+FN+lK4qx8f8qFp+8/wzz35ev9R9Wvfn6vx1/1sVcP&#xA;+VAVNP8ACle//HN64qirH/lSnNvqH+G+dPj9D6hWnvwxVMLb/lWvrp9W/Q3r/sel9V51p2474qmQ&#xA;/wALVFPqNe1PRrXFU0xV2KuxV2KuxV2KuxVB336G9Rfr31f1KfD6/Dlxr25dsVQ3/Oq/8uP/ACRx&#xA;VBX3/KvPUX69+iPUp8Pr/VuXGvbl2xVD/wDIK/8AtR/9OeKpzon+Hfq8n6C+p/V+f736j6XDnQfa&#xA;9LblSmKpjirsVdirsVdirsVdirsVdirsVdirsVdirsVf/9k=</xmpGImg:image>
               </rdf:li>
            </rdf:Alt>
         </xmp:Thumbnails>
      </rdf:Description>
      <rdf:Description rdf:about=""
            xmlns:xmpMM="http://ns.adobe.com/xap/1.0/mm/"
            xmlns:stRef="http://ns.adobe.com/xap/1.0/sType/ResourceRef#"
            xmlns:stEvt="http://ns.adobe.com/xap/1.0/sType/ResourceEvent#">
         <xmpMM:RenditionClass>proof:pdf</xmpMM:RenditionClass>
         <xmpMM:OriginalDocumentID>uuid:65E6390686CF11DBA6E2D887CEACB407</xmpMM:OriginalDocumentID>
         <xmpMM:DocumentID>xmp.did:07801174072068118C14E8D79F052FC4</xmpMM:DocumentID>
         <xmpMM:InstanceID>xmp.iid:07801174072068118C14E8D79F052FC4</xmpMM:InstanceID>
         <xmpMM:DerivedFrom rdf:parseType="Resource">
            <stRef:instanceID>xmp.iid:06801174072068118C14E8D79F052FC4</stRef:instanceID>
            <stRef:documentID>xmp.did:06801174072068118C14E8D79F052FC4</stRef:documentID>
            <stRef:originalDocumentID>uuid:65E6390686CF11DBA6E2D887CEACB407</stRef:originalDocumentID>
            <stRef:renditionClass>proof:pdf</stRef:renditionClass>
         </xmpMM:DerivedFrom>
         <xmpMM:History>
            <rdf:Seq>
               <rdf:li rdf:parseType="Resource">
                  <stEvt:action>saved</stEvt:action>
                  <stEvt:instanceID>xmp.iid:01801174072068118C14E8D79F052FC4</stEvt:instanceID>
                  <stEvt:when>2017-04-06T07:14:33+02:00</stEvt:when>
                  <stEvt:softwareAgent>Adobe Illustrator CS5</stEvt:softwareAgent>
                  <stEvt:changed>/</stEvt:changed>
               </rdf:li>
               <rdf:li rdf:parseType="Resource">
                  <stEvt:action>saved</stEvt:action>
                  <stEvt:instanceID>xmp.iid:03801174072068118C14E8D79F052FC4</stEvt:instanceID>
                  <stEvt:when>2017-04-06T07:28:48+02:00</stEvt:when>
                  <stEvt:softwareAgent>Adobe Illustrator CS5</stEvt:softwareAgent>
                  <stEvt:changed>/</stEvt:changed>
               </rdf:li>
               <rdf:li rdf:parseType="Resource">
                  <stEvt:action>saved</stEvt:action>
                  <stEvt:instanceID>xmp.iid:04801174072068118C14E8D79F052FC4</stEvt:instanceID>
                  <stEvt:when>2017-04-06T07:39:39+02:00</stEvt:when>
                  <stEvt:softwareAgent>Adobe Illustrator CS5</stEvt:softwareAgent>
                  <stEvt:changed>/</stEvt:changed>
               </rdf:li>
               <rdf:li rdf:parseType="Resource">
                  <stEvt:action>saved</stEvt:action>
                  <stEvt:instanceID>xmp.iid:05801174072068118C14E8D79F052FC4</stEvt:instanceID>
                  <stEvt:when>2017-04-06T07:40:03+02:00</stEvt:when>
                  <stEvt:softwareAgent>Adobe Illustrator CS5</stEvt:softwareAgent>
                  <stEvt:changed>/</stEvt:changed>
               </rdf:li>
               <rdf:li rdf:parseType="Resource">
                  <stEvt:action>saved</stEvt:action>
                  <stEvt:instanceID>xmp.iid:06801174072068118C14E8D79F052FC4</stEvt:instanceID>
                  <stEvt:when>2017-04-06T07:43:55+02:00</stEvt:when>
                  <stEvt:softwareAgent>Adobe Illustrator CS5</stEvt:softwareAgent>
                  <stEvt:changed>/</stEvt:changed>
               </rdf:li>
               <rdf:li rdf:parseType="Resource">
                  <stEvt:action>saved</stEvt:action>
                  <stEvt:instanceID>xmp.iid:07801174072068118C14E8D79F052FC4</stEvt:instanceID>
                  <stEvt:when>2017-04-06T07:59:23+02:00</stEvt:when>
                  <stEvt:softwareAgent>Adobe Illustrator CS5</stEvt:softwareAgent>
                  <stEvt:changed>/</stEvt:changed>
               </rdf:li>
            </rdf:Seq>
         </xmpMM:History>
      </rdf:Description>
      <rdf:Description rdf:about=""
            xmlns:illustrator="http://ns.adobe.com/illustrator/1.0/">
         <illustrator:StartupProfile>Web</illustrator:StartupProfile>
      </rdf:Description>
      <rdf:Description rdf:about=""
            xmlns:xmpTPg="http://ns.adobe.com/xap/1.0/t/pg/"
            xmlns:stDim="http://ns.adobe.com/xap/1.0/sType/Dimensions#"
            xmlns:xmpG="http://ns.adobe.com/xap/1.0/g/">
         <xmpTPg:NPages>1</xmpTPg:NPages>
         <xmpTPg:HasVisibleTransparency>False</xmpTPg:HasVisibleTransparency>
         <xmpTPg:HasVisibleOverprint>False</xmpTPg:HasVisibleOverprint>
         <xmpTPg:MaxPageSize rdf:parseType="Resource">
            <stDim:w>800.000000</stDim:w>
            <stDim:h>600.000000</stDim:h>
            <stDim:unit>Pixels</stDim:unit>
         </xmpTPg:MaxPageSize>
         <xmpTPg:PlateNames>
            <rdf:Seq>
               <rdf:li>Cyan</rdf:li>
               <rdf:li>Magenta</rdf:li>
               <rdf:li>Yellow</rdf:li>
               <rdf:li>Black</rdf:li>
            </rdf:Seq>
         </xmpTPg:PlateNames>
         <xmpTPg:SwatchGroups>
            <rdf:Seq>
               <rdf:li rdf:parseType="Resource">
                  <xmpG:groupName>Groupe de nuances par défaut</xmpG:groupName>
                  <xmpG:groupType>0</xmpG:groupType>
               </rdf:li>
            </rdf:Seq>
         </xmpTPg:SwatchGroups>
      </rdf:Description>
      <rdf:Description rdf:about=""
            xmlns:pdf="http://ns.adobe.com/pdf/1.3/">
         <pdf:Producer>Adobe PDF library 9.90</pdf:Producer>
      </rdf:Description>
   </rdf:RDF>
</x:xmpmeta>
                                                                                                    
                                                                                                    
                                                                                                    
                                                                                                    
                                                                                                    
                                                                                                    
                                                                                                    
                                                                                                    
                                                                                                    
                                                                                                    
                                                                                                    
                                                                                                    
                                                                                                    
                                                                                                    
                                                                                                    
                                                                                                    
                                                                                                    
                                                                                                    
                                                                                                    
                                                                                                    
                           
<?xpacket end="w"?>
	</metadata>
<polygon fill="#FFFFFF" stroke="#000000" stroke-width="1.4099" stroke-miterlimit="10" points="518.958,200.574 386.18,205.733 
	384.6,34.24 513.309,28.442 "/>
<polygon fill="#FFFFFF" stroke="#000000" stroke-width="1.9755" stroke-miterlimit="10" points="515.75,206.75 386.474,210.25 
	389.209,38.012 517.009,40.002 "/>
<g>
	
		<rect x="47.827" y="38.323" transform="matrix(0.9999 0.0156 -0.0156 0.9999 1.9778 -2.6704)" fill="#FFFFFF" stroke="#000000" stroke-width="1.3818" stroke-miterlimit="10" width="249.422" height="174.803"/>
	
		<rect x="47.834" y="37.355" transform="matrix(0.9999 0.0156 -0.0156 0.9999 1.9555 -1.7029)" fill="#FFFFFF" stroke="#000000" stroke-width="1.3818" stroke-miterlimit="10" width="125.057" height="174.803"/>
</g>
<g>
	
		<rect x="51.06" y="40.917" transform="matrix(0.9999 0.0156 -0.0156 0.9999 2.0189 -2.7207)" fill="#FFFFFF" stroke="#000000" stroke-width="1.3818" stroke-miterlimit="10" width="249.423" height="174.803"/>
	
		<rect x="51.068" y="39.948" transform="matrix(0.9999 0.0156 -0.0156 0.9999 1.9957 -1.7525)" fill="#FFFFFF" stroke="#000000" stroke-width="1.3818" stroke-miterlimit="10" width="125.057" height="174.803"/>
</g>
<rect x="54.834" y="43.943" transform="matrix(0.9999 0.0156 -0.0156 0.9999 2.0664 -2.7791)" fill="#FFFFFF" stroke="#000000" stroke-width="1.3818" stroke-miterlimit="10" width="249.422" height="174.803"/>
<rect x="52.66" y="45.421" transform="matrix(0.9997 -0.0262 0.0262 0.9997 -3.4362 3.0597)" fill="#FFFFFF" stroke="#000000" stroke-width="1.3818" stroke-miterlimit="10" width="125.056" height="174.803"/>
<ellipse fill="none" stroke="#000000" stroke-width="0.2417" stroke-miterlimit="10" cx="295.288" cy="68.464" rx="1.562" ry="1.584"/>
<rect x="386.834" y="39.355" transform="matrix(0.9999 0.0156 -0.0156 0.9999 2.0282 -6.9817)" fill="#FFFFFF" stroke="#000000" stroke-width="1.3818" stroke-miterlimit="10" width="125.057" height="174.803"/>
<rect x="389.827" y="41.978" transform="matrix(0.9999 0.0156 -0.0156 0.9999 2.0529 -7.003)" fill="#FFFFFF" stroke="#000000" stroke-width="1.9138" stroke-miterlimit="10" width="122.043" height="172.776"/>
<polygon points="387.525,215.27 380.9,212.024 383.65,34.024 392.275,40.149 "/>
</svg>
