<?xml version="1.0" encoding="utf-8"?>
<!-- Generator: Adobe Illustrator 15.0.2, SVG Export Plug-In . SVG Version: 6.00 Build 0)  -->
<!DOCTYPE svg PUBLIC "-//W3C//DTD SVG 1.1//EN" "http://www.w3.org/Graphics/SVG/1.1/DTD/svg11.dtd" [
	<!ENTITY ns_extend "http://ns.adobe.com/Extensibility/1.0/">
	<!ENTITY ns_ai "http://ns.adobe.com/AdobeIllustrator/10.0/">
	<!ENTITY ns_graphs "http://ns.adobe.com/Graphs/1.0/">
	<!ENTITY ns_vars "http://ns.adobe.com/Variables/1.0/">
	<!ENTITY ns_imrep "http://ns.adobe.com/ImageReplacement/1.0/">
	<!ENTITY ns_sfw "http://ns.adobe.com/SaveForWeb/1.0/">
	<!ENTITY ns_custom "http://ns.adobe.com/GenericCustomNamespace/1.0/">
	<!ENTITY ns_adobe_xpath "http://ns.adobe.com/XPath/1.0/">
]>
<svg version="1.1" id="Calque_1" xmlns:x="&ns_extend;" xmlns:i="&ns_ai;" xmlns:graph="&ns_graphs;"
	 xmlns="http://www.w3.org/2000/svg" xmlns:xlink="http://www.w3.org/1999/xlink" x="0px" y="0px" width="800px" height="600px"
	 viewBox="0 0 800 600" enable-background="new 0 0 800 600" xml:space="preserve">
<metadata><?xpacket begin="﻿" id="W5M0MpCehiHzreSzNTczkc9d"?>
<x:xmpmeta xmlns:x="adobe:ns:meta/" x:xmptk="Adobe XMP Core 5.0-c060 61.134777, 2010/02/12-17:32:00        ">
   <rdf:RDF xmlns:rdf="http://www.w3.org/1999/02/22-rdf-syntax-ns#">
      <rdf:Description rdf:about=""
            xmlns:dc="http://purl.org/dc/elements/1.1/">
         <dc:format>image/svg+xml</dc:format>
         <dc:title>
            <rdf:Alt>
               <rdf:li xml:lang="x-default">Web</rdf:li>
            </rdf:Alt>
         </dc:title>
      </rdf:Description>
      <rdf:Description rdf:about=""
            xmlns:xmp="http://ns.adobe.com/xap/1.0/"
            xmlns:xmpGImg="http://ns.adobe.com/xap/1.0/g/img/">
         <xmp:CreatorTool>Adobe Illustrator CS5</xmp:CreatorTool>
         <xmp:CreateDate>2017-04-06T14:44:45+02:00</xmp:CreateDate>
         <xmp:ModifyDate>2017-04-06T14:44:46+02:00</xmp:ModifyDate>
         <xmp:MetadataDate>2017-04-06T14:44:46+02:00</xmp:MetadataDate>
         <xmp:Thumbnails>
            <rdf:Alt>
               <rdf:li rdf:parseType="Resource">
                  <xmpGImg:width>256</xmpGImg:width>
                  <xmpGImg:height>64</xmpGImg:height>
                  <xmpGImg:format>JPEG</xmpGImg:format>
                  <xmpGImg:image>/9j/4AAQSkZJRgABAgEASABIAAD/7QAsUGhvdG9zaG9wIDMuMAA4QklNA+0AAAAAABAASAAAAAEA&#xA;AQBIAAAAAQAB/+4ADkFkb2JlAGTAAAAAAf/bAIQABgQEBAUEBgUFBgkGBQYJCwgGBggLDAoKCwoK&#xA;DBAMDAwMDAwQDA4PEA8ODBMTFBQTExwbGxscHx8fHx8fHx8fHwEHBwcNDA0YEBAYGhURFRofHx8f&#xA;Hx8fHx8fHx8fHx8fHx8fHx8fHx8fHx8fHx8fHx8fHx8fHx8fHx8fHx8fHx8f/8AAEQgAQAEAAwER&#xA;AAIRAQMRAf/EAaIAAAAHAQEBAQEAAAAAAAAAAAQFAwIGAQAHCAkKCwEAAgIDAQEBAQEAAAAAAAAA&#xA;AQACAwQFBgcICQoLEAACAQMDAgQCBgcDBAIGAnMBAgMRBAAFIRIxQVEGE2EicYEUMpGhBxWxQiPB&#xA;UtHhMxZi8CRygvElQzRTkqKyY3PCNUQnk6OzNhdUZHTD0uIIJoMJChgZhJRFRqS0VtNVKBry4/PE&#xA;1OT0ZXWFlaW1xdXl9WZ2hpamtsbW5vY3R1dnd4eXp7fH1+f3OEhYaHiImKi4yNjo+Ck5SVlpeYmZ&#xA;qbnJ2en5KjpKWmp6ipqqusra6voRAAICAQIDBQUEBQYECAMDbQEAAhEDBCESMUEFURNhIgZxgZEy&#xA;obHwFMHR4SNCFVJicvEzJDRDghaSUyWiY7LCB3PSNeJEgxdUkwgJChgZJjZFGidkdFU38qOzwygp&#xA;0+PzhJSktMTU5PRldYWVpbXF1eX1RlZmdoaWprbG1ub2R1dnd4eXp7fH1+f3OEhYaHiImKi4yNjo&#xA;+DlJWWl5iZmpucnZ6fkqOkpaanqKmqq6ytrq+v/aAAwDAQACEQMRAD8A7X+e+nwXP5VeYLl2mjuN&#xA;MtJr6ylgnmt2S4hiYI9YXjLAcj8LVXxGKrNc/OXywPIXmPzP5cuk1KXQbf1Wt5IriP45BS3LRukc&#xA;npSt9mQDiRUg0BOKr7v83NEt/OWgaMfV+oa/psl9az/U70zGVriGG3RoxFWJHWSQuZFHGg5caiqq&#xA;K0H85fy217UoNN0zWPUvLiRoIo5be6tx66V5QM08UarN8J/dsQ/tiqa675wsLHQodU04xas17cw2&#xA;OmxQTLwnuJ5xAFEqiQAI3IuaHiFbwxVItV/ObydouuX+na1O1jBazLZ2t4Iridbm6WFZ54IxDDIO&#xA;UazRgDlyZiwA+E4qq3351fljYafYajea2sNjqTyxWty0FzwEsG0kUpEX7iRf5JeLe2Koi8/N38ub&#xA;KWxiudajjbUY4ZrZvTmKCK5NIJJnCFYEk/YaUqD2xVRX85/y0OtNorax6WpR3P1KaGW2uoljn5cF&#xA;SWSSJY4+bGiFmAf9knFUx/5WR5J/xP8A4Y/Ssf6a9T0PQ4Sen63Hn6Pr8fQ9Xjv6fPl7YqxjzD+e&#xA;3k620C81PQ7o6jLY3em286G1vAhi1C79H1Iz6S+qpiimaNo+SsVAFeSgqphe/nh+WVjdG0u9Vlhu&#xA;xDDcm2awv/V9G4j9VJPT9Dnw4/aNPgOzUO2Kr9b/ADt/K7Q2tv0nr0cCXlqL+zmEVxJDNbkEhopY&#xA;43jc7fZVuVaCm4xVC2n51+S7fy9pWra3qUca6zJdpp0lna6hLFL9WuHiCKGtxIJaIAUZQS1eNRvi&#xA;rd1+cflseaPK+nWU313TPMdrdTR3cFvdTMJYp4YIEpFG3GsjyrJzA4FRy491WQebPzB8oeUzbrr2&#xA;oC1lugzW8CRTXErLH9t/St0lcItficjiPHFUr1b86Pyx0mazi1DXY4f0hbLeWMvpTvDPA9eLRTJG&#xA;0TnanENy6bbjFVfR/wA2fy+1nW4tE0zV1udSnkkitohDOqStCjyS+lK0axSBFjbkyMQOnUjFWKea&#xA;/wA1Py11fRNW0fzDdvaRGWdLVbeS85vFZymJLqWWyVTbRvcROF5uFZRWpDUxVMPLP5keVfLX5Z+S&#xA;pfM2qmG6vdDsJ90muZnUWsXqTSLCkrhAzfFI3w1O5xVOv+Vs+QvqGuagNQkay8tmL9MTrZ3jLGJ9&#xA;4nSkJ9ZGWj84uS8CHrxIOKoOw/N3ypLY6vrF1qMSaLY30enW3G3vlvfrBgSR4ZrOWBJvV5M3ERo3&#xA;wjxDUVULj85fLR8zeV7CwnN7pfmS1up4ruC2upmEkU8MEC0jjbiGd5Vk5gcCo5ce6qItvzd8pRaf&#xA;qep6nqdvHY22qyaVZiCK8ed5Ioo3MTW7QrK8wLsT6SsvGhr1oqq3v5z/AJa2Wn6bqE2sVs9WMi6f&#xA;LDbXUwkkhNHipFE5WUHb02Af2xVk+h65pOu6Vb6tpNyt3p90C0E6VAPFirAhgGVlZSrKRUEUO+Ko&#xA;7FXYq7FXYq7FXYqxr8y/L+q+Y/IWuaDpXoC/1S1e0ha6keKFfV+FmZo45m+FSSAE3O21ahVifmP8&#xA;vfN/mC780m4TTbG213yxBotsYLiaZo7uEzSnkjW0K+j6l26hg3LigPH4iFVVNQ0D81pb/RvMdsNL&#xA;HmE2Oo6ZfxSSyehZx391FcW8sREZ+sG1S3VHUhOZ3qK4qxTyNa+ZfN8WoWFgNLfyfH5yvdVbXLe6&#xA;Mt2Ra6s16kKwonFZJWVCJfVH7pgab7qs6tvL/mVL/R5L3SrJbTy7a3t9BZaUUhtZ9TuHkigSFJSp&#xA;QpbvJyZwF5y1B2OKsN82W2reV4vyxtI30+fzZNrF1e3NvfziCK6vbmzuHuwslJGBaa59OJuJCs0Y&#xA;8MVTqz8g+en1HS9ZuodNiu5/Mp8xa1ZpczLHbxDT/wBGxw2/G3dZ5fSb1JHb0+TinQ8lVSrz5+S+&#xA;r635n16eCyttQsfM5haS/udU1K0NiY7dLdg9lbMsN2oEQeMMVPI8WPGmKoCKx8z+a9Z/M3ytof6K&#xA;l0XVdZW21TU2uSbyypZ20c7C3SNxKaRskVZF4yq/LpirJ/8AAXnP60PLnp2H+FBr3+If016sn1//&#xA;AHv/AEn9X9Ex09T1/g9b1f7vtXFWMaf+Tnn21sNTtbaO0sokisvRsVv7mezvbrTtRt76KWKGWM/o&#xA;+MrDLH6SF1Bk/lUVVRMGu/mDD+bl3FaW+iat5m/w7arqumtfNbG256hezQrE4ikaRbeGeIS1RS1U&#xA;bbkMVZN5M/LzzT5e8xaBdzPYXFjZaZqdtqcscksUgutVv11BxbW/oshhieIRpylB4np8NGVQeheQ&#xA;PP1mPKQu4NJI0LXdU1W9CXly9bfUzcFRFys05Sxm/k2biP3a7/GeCqCtvIP5p6bNZ6pp8ekLrCXn&#xA;mA8RdTyQQRa/cw3SXFXtojI1s8RUxcRzFDyFSAqnd5o35p2Pm28812Vno+q3F1E+lR6f9YntPTsI&#xA;bmSaynMzxTVlInYXCBeJ4rxOKrfJv5e+afL/AJj0C7mexuLGy0zU7bUpUlljkF1qt+uoOLaD0WQw&#xA;xPEI05SqeJ6DjRlXlXkS28+WejeWJblLm7imtZ7X8u5VvLRrOK+uLOVVmkiNva3Cp9WErxrJK5VR&#xA;w+0VxV6UvkTzp5Tk1Ox8mWOmajpWuW1rbtJqE8lvLaS21mlj6kgSKb6xE0cIcqGVuZbxxVjEn5K+&#xA;d44dLe+s9N12W10e28vC3i1XVNKjhgseSwztJbUM4lEjNNGUHHYJX4iyrI7j8lL8ah5Yjs76CLRL&#xA;ew0/TvOFlRwL6PR+EtiYlPqf7tQo/N/7s0q2KoDXPy1/MuTUPMl7ZPaC21LXbfV7O3stRuLK8eCG&#xA;1ezeI3a23K2eRfTdjGTtyjrQ8iqt0X8t/wA19A07QnspdKudW0xtbt0eSe6dYYdcnhuluJJZkeS5&#xA;kt5o35AheYI3rUlVGr5D/MbTPN2oebbK20q+nXU727sNMa7mT1rXULa1t5A0rW1IJ4/0dGy0DqQ7&#xA;qSKAsqidP/L7ztHrOia3cppjXJ1+617W7QTzLHbrc2A05IbSlu/rOkZ9Vmf06yD/ACqqqyr8t9A1&#xA;/RNHv7fXI7SO7u9V1DUUWxmkuIhHf3LXIUtLDbMGRpSn2egBrvQKsrxV2KuxV2KuxV2KuxV2KuxV&#xA;Aa7rukaDpVxq2r3K2mn2oDTTvUgciFUBVBZmZiFVVBJOw3xVgV5/zkH5HtJJoriy1qOS1t2vLxH0&#xA;q7jaG2DBRPIkiKwiblUPTiO5BIqq9MxV2KuxV2KuxV2KuxVBa3relaHpVzq2rXKWenWac7i4etFF&#xA;QBsASSSQAAKk7DfFWAXX/OQXkq2nlgl0/XBJBaS6jOG0q7Qx2cLIpuGWREb0j6nLnTiADyI2qq9J&#xA;gmjnhjmjNY5VDoelQwqMVX4q7FWJ6J+V/k/RdcGs2FvMLiL1TZW8lxPLa2huK+sbS3d2ig9SprwU&#xA;bbCgJxVlmKuxV2KuxV2KuxV2KuxV2KuxV2KuxV2KuxVAa9rdloelTaneLM8EPBfTtopLiZ3ldYo0&#xA;jiiDO7O7qoAHfFUg0z8wrfWdQg0m00nWLW7uY3aa5uLF44rL920kf1mST92kjqEZYt3+NeSj4qKo&#xA;Ty/511hfNY8oaqsGr3kaO8usaSG9KAIpKrqEDFxayPT4QJH5HoFGKt/mWIf0n5H+u8f0SPMMX1vl&#xA;09b6nc/UuVfh4/W/S6/tcaYqg/zzvdHi/LzzJazNGNXudE1BrRStZTBEqGejU2QM8dd+tMVSnVvz&#xA;E/MfR/L3nH9IwaR/iHyvY2mroYEuXtHt7r1y0DK0iSeqn1RxzD8TUHiNxiqKXzL+c8+tv5Zjg8uQ&#xA;a7bWqald3Ja9mtBbTO8EEaL+5lMry28pZvsovH7ROKpYv5mfmZrF/pkPl+30W2W703ULy+jv1uZf&#xA;RuNHvBZXaJLDIgkSSZgIzwBA+I16Yqhn/Ozzpo+g2Wua/pVjcQeYtI/S3lyy036y06SPNaQw21zy&#xA;EnqF/wBIxHnEoOxAQ7Yqyn8rPPnm3zBd6lp3mjTPqNzarFPY3Qsr7To7mN6rKqQ6gBKxgfjyddqO&#xA;uynbFUV5n8z+dn8zXOg+UbfTvV0uwh1LUp9VMwSQXMkyQwQekU4k/VXLStVV22O+KpG/5g/mJrer&#xA;+XI/KFtpAsPMOg/p1ItW+tRzQ8WgR1MsBdX3u0oPTFeJ+LcYqnn5oiPn5N+ucTp48yWX14sKR19G&#xA;f6vyrXb656PGv7VMVd+cV7o8HkLzJBcNGuqXWgaylgCtZTGlm0k4VqHivwoW3oSF70xVjLefPzG0&#xA;fyz5jtryLSDrnl/QrbzDYyxJctaSWbCfnbyoZEk9ZfqbAOrcTUHiKUxVMl81/mw8uk6IbfQovMer&#xA;w3GoR3AN5LYw2NoIFbkrehK80kt0oCKaKoJJOKpbH+Yn5o6vqmh2OiW+iW8mpQaql3HerdSiK80O&#xA;7W0uvTlikQSQzPIPS+Gqjck/ZxVCWv5j/mfqGhaNqNza6Itl5ytbo6RbJ9d9S1eOymvYxcyB19VW&#xA;igZW9MRkMRSuKo7yT5x863ekNp9mml26ReVNF1vQy0V3KsQu45EkhuTJcNJLQ2zcCHDUI5FjXFVM&#xA;fmF+aWonyuNFj0RRrnlhfMN2byK7pFJGkBnRPTm3R2ulVBSq7klumKpt5A8/+c9V1LQl8xWmnQ2P&#xA;mzSZdZ0UWBmMtukJt29G5MpKyMY7xDzQLuCOPfFXpWKuxV2KuxV2KuxV2KuxV2KuxV2KuxVZPBHP&#xA;BJBKCY5VZHAJU8WFDRlII+YOKoXR9F0jRbCPT9Js4rGyi+xBAgRanqxp1Y92O574q1rmh6Truk3O&#xA;kavbJeaddrwuLeSvFgCGG4IIKsAVINQdxvirF7f8nfJCafqVjdR3uorqsK2l5c3t/eTXJtEcOtql&#xA;wZRLHDyX4kRgG6NUYqiLz8qfJN7+kfrVtdzfpayg03UeWo6gfWtbXj6Ubf6R247sPibk/Inm/JVW&#xA;8wflv5a1xbE3Jvbe60+H6rb6hZ3t1b3ZtyAGhluUkEsqPx+L1GbffqScVaX8sfJcctpLBZzWzWOn&#xA;y6RaLbXl5bolncV9VAkUyLycnkZCOfIK3LkqkKoVvye/L54NPt5dPmmt9LspNNsYJr6+ljjtJiS0&#xA;XB52Vt+PEsCV4pxI9NOKqP8AK35f+X/Ld1PeWbXd1fToIDeajd3F9MkCnksEb3DyFIwd+K9e9aDF&#xA;Vvmv8uvLHmi5hutUjuEuYo2t2mtLme0aW2c8mt5jA8fqRMd+LfR1OKotfJnl1NdsNcitni1DS7Q6&#xA;dYelPPHBHat1i+rJItuQaL9pCfhX+VaKo7WtF0rW9KudJ1a2S8068Qx3NtIKqynftQggioI3B3G+&#xA;KsVt/wAnPI6WeoWtzHe6gup24sbma91C9nnFmGD/AFWKdpfVihYqOSIw5DZqjFUVc/lV5Juvr31i&#xA;3u5P0lp8OkX3LUdQ/e2Vvx9OFv8ASP8AJ+Jh8Tcn5E835KorXPy/8uazpmnWF0LqL9EqE029t7u4&#xA;hvIVCCNgLpX9duaCj8nPLq1TviqjD+WPkyCfTp7a0ntpNKsptOsDb3t5CI7e5B9YcY5kUvIW5NIR&#xA;z5BW5clUhVDS/lB5Dk0vStKNreJY6GJV0qKPU9SjMInUpIA6XCuQUZkHImikqKKaYqh7z8lPIVxZ&#xA;2NpHDe2cNhaHTYja6hexSSWBdn+qTSCX1JYQznijseI2Wg2xVGWX5T+RLEWgsbGe0WxsbjTLRLe+&#xA;vokjtLxmedAqTKtXd+XOnIEKQaotFVfSvy28oaTeaPeWNvcxz6BayWGk8769lSG2lJLxenJM6Ou4&#xA;pzU0CoBsicVWT4q7FXYq7FXYq7FXYq7FXYq7FXYq7FXYq7FXYq7FXYq7FXYq7FXYq7FXYq7FXYq7&#xA;FXYq7FXYq7FXYq7FXYq7FXYq7FXYq7FXYq7FXYq7FXYq7FXYq7FXYq7FXYq7FXYq7FXYq7FXYq7F&#xA;XYq7FXYq7FXYq7FXYq7FXYq7FXYq7FXYq7FXYq7FXYq7FXYq7FXYq7FXYq7FXYq7FXYq7FXYq7FX&#xA;Yq7FXYq7FXYq7FXYq7FXYq7FXYq7FXYq7FXYq7FXYq7FXYq7FXYq/wD/2Q==</xmpGImg:image>
               </rdf:li>
            </rdf:Alt>
         </xmp:Thumbnails>
      </rdf:Description>
      <rdf:Description rdf:about=""
            xmlns:xmpMM="http://ns.adobe.com/xap/1.0/mm/"
            xmlns:stRef="http://ns.adobe.com/xap/1.0/sType/ResourceRef#"
            xmlns:stEvt="http://ns.adobe.com/xap/1.0/sType/ResourceEvent#">
         <xmpMM:RenditionClass>proof:pdf</xmpMM:RenditionClass>
         <xmpMM:OriginalDocumentID>uuid:65E6390686CF11DBA6E2D887CEACB407</xmpMM:OriginalDocumentID>
         <xmpMM:DocumentID>xmp.did:F77F1174072068118083EF27A7BC687E</xmpMM:DocumentID>
         <xmpMM:InstanceID>xmp.iid:F77F1174072068118083EF27A7BC687E</xmpMM:InstanceID>
         <xmpMM:DerivedFrom rdf:parseType="Resource">
            <stRef:instanceID>uuid:87f3739c-255f-7543-b9e9-80197ae72cdf</stRef:instanceID>
            <stRef:documentID>xmp.did:FD7F11740720681188C6D6CD398E74C0</stRef:documentID>
            <stRef:originalDocumentID>uuid:65E6390686CF11DBA6E2D887CEACB407</stRef:originalDocumentID>
            <stRef:renditionClass>proof:pdf</stRef:renditionClass>
         </xmpMM:DerivedFrom>
         <xmpMM:History>
            <rdf:Seq>
               <rdf:li rdf:parseType="Resource">
                  <stEvt:action>saved</stEvt:action>
                  <stEvt:instanceID>xmp.iid:F77F1174072068118083EF27A7BC687E</stEvt:instanceID>
                  <stEvt:when>2017-04-06T14:44:46+02:00</stEvt:when>
                  <stEvt:softwareAgent>Adobe Illustrator CS5</stEvt:softwareAgent>
                  <stEvt:changed>/</stEvt:changed>
               </rdf:li>
            </rdf:Seq>
         </xmpMM:History>
      </rdf:Description>
      <rdf:Description rdf:about=""
            xmlns:illustrator="http://ns.adobe.com/illustrator/1.0/">
         <illustrator:StartupProfile>Web</illustrator:StartupProfile>
      </rdf:Description>
      <rdf:Description rdf:about=""
            xmlns:xmpTPg="http://ns.adobe.com/xap/1.0/t/pg/"
            xmlns:stDim="http://ns.adobe.com/xap/1.0/sType/Dimensions#"
            xmlns:stFnt="http://ns.adobe.com/xap/1.0/sType/Font#"
            xmlns:xmpG="http://ns.adobe.com/xap/1.0/g/">
         <xmpTPg:NPages>1</xmpTPg:NPages>
         <xmpTPg:HasVisibleTransparency>False</xmpTPg:HasVisibleTransparency>
         <xmpTPg:HasVisibleOverprint>False</xmpTPg:HasVisibleOverprint>
         <xmpTPg:MaxPageSize rdf:parseType="Resource">
            <stDim:w>800.000000</stDim:w>
            <stDim:h>600.000000</stDim:h>
            <stDim:unit>Pixels</stDim:unit>
         </xmpTPg:MaxPageSize>
         <xmpTPg:Fonts>
            <rdf:Bag>
               <rdf:li rdf:parseType="Resource">
                  <stFnt:fontName>NewClarendonMT</stFnt:fontName>
                  <stFnt:fontFamily>New Clarendon MT</stFnt:fontFamily>
                  <stFnt:fontFace>Regular</stFnt:fontFace>
                  <stFnt:fontType>Type 1</stFnt:fontType>
                  <stFnt:versionString>001.002</stFnt:versionString>
                  <stFnt:composite>False</stFnt:composite>
                  <stFnt:fontFileName>NewClaMT; New_Clarendon_MT</stFnt:fontFileName>
               </rdf:li>
               <rdf:li rdf:parseType="Resource">
                  <stFnt:fontName>MyriadPro-Regular</stFnt:fontName>
                  <stFnt:fontFamily>Myriad Pro</stFnt:fontFamily>
                  <stFnt:fontFace>Regular</stFnt:fontFace>
                  <stFnt:fontType>Open Type</stFnt:fontType>
                  <stFnt:versionString>Version 2.007;PS 002.000;Core 1.0.38;makeotf.lib1.7.9032</stFnt:versionString>
                  <stFnt:composite>False</stFnt:composite>
                  <stFnt:fontFileName>MyriadPro-Regular.otf</stFnt:fontFileName>
               </rdf:li>
               <rdf:li rdf:parseType="Resource">
                  <stFnt:fontName>nanook</stFnt:fontName>
                  <stFnt:fontFamily>nanook</stFnt:fontFamily>
                  <stFnt:fontFace>Regular</stFnt:fontFace>
                  <stFnt:fontType>Open Type</stFnt:fontType>
                  <stFnt:versionString>1.000</stFnt:versionString>
                  <stFnt:composite>False</stFnt:composite>
                  <stFnt:fontFileName>nanook.otf</stFnt:fontFileName>
               </rdf:li>
            </rdf:Bag>
         </xmpTPg:Fonts>
         <xmpTPg:PlateNames>
            <rdf:Seq>
               <rdf:li>Cyan</rdf:li>
               <rdf:li>Magenta</rdf:li>
               <rdf:li>Yellow</rdf:li>
               <rdf:li>Black</rdf:li>
            </rdf:Seq>
         </xmpTPg:PlateNames>
         <xmpTPg:SwatchGroups>
            <rdf:Seq>
               <rdf:li rdf:parseType="Resource">
                  <xmpG:groupName>Groupe de nuances par défaut</xmpG:groupName>
                  <xmpG:groupType>0</xmpG:groupType>
               </rdf:li>
            </rdf:Seq>
         </xmpTPg:SwatchGroups>
      </rdf:Description>
      <rdf:Description rdf:about=""
            xmlns:pdf="http://ns.adobe.com/pdf/1.3/">
         <pdf:Producer>Adobe PDF library 9.90</pdf:Producer>
      </rdf:Description>
   </rdf:RDF>
</x:xmpmeta>
                                                                                                    
                                                                                                    
                                                                                                    
                                                                                                    
                                                                                                    
                                                                                                    
                                                                                                    
                                                                                                    
                                                                                                    
                                                                                                    
                                                                                                    
                                                                                                    
                                                                                                    
                                                                                                    
                                                                                                    
                                                                                                    
                                                                                                    
                                                                                                    
                                                                                                    
                                                                                                    
                           
<?xpacket end="w"?>
	</metadata>
<rect x="29" y="27" fill="none" width="673" height="170"/>
<text transform="matrix(1 0 0 1 29 60.084)" font-family="'nanook'" font-size="36">http</text>
<text transform="matrix(1 0 0 1 100.3149 60.084)" font-family="'MyriadPro-Regular'" font-size="36">://</text>
<text transform="matrix(1 0 0 1 132.4619 60.084)" enable-background="new    "><tspan x="0" y="0" font-family="'nanook'" font-size="36">prepostprint.org</tspan><tspan x="264.2" y="0" font-family="'NewClarendonMT'" font-size="36"> </tspan><tspan x="274.136" y="0" font-family="'nanook'" font-size="36">deviation</tspan></text>
<text transform="matrix(1 0 0 1 396.6611 60.084)" font-family="'MyriadPro-Regular'" font-size="36">/</text>
<text transform="matrix(1 0 0 1 14.7988 118)" font-family="'nanook'" font-size="36"> --</text>
<text transform="matrix(1 0 0 1 54.542 118)" font-family="'MyriadPro-Regular'" font-size="36">&gt;  </text>
<text transform="matrix(1 0 0 1 91.2607 118)" font-family="'nanook'" font-size="36">Chrome or Chromium</text>
</svg>
